D:\development\yelp\YelpReviewProject-demo\src\main\java\yelpProject\dto\LocationInfo.java
D:\development\yelp\YelpReviewProject-demo\src\main\java\yelpProject\dto\YelpInfo.java
D:\development\yelp\YelpReviewProject-demo\src\main\java\yelpProject\controllers\YelpController.java
D:\development\yelp\YelpReviewProject-demo\src\main\java\yelpProject\dto\YelpReview.java
D:\development\yelp\YelpReviewProject-demo\src\main\java\yelpProject\YelpReviewApplication.java
D:\development\yelp\YelpReviewProject-demo\src\main\java\yelpProject\services\DetectFaces.java
D:\development\yelp\YelpReviewProject-demo\src\main\java\yelpProject\controllers\ImageController.java
D:\development\yelp\YelpReviewProject-demo\src\main\java\yelpProject\services\YelpService.java
